1 1
2 2
3 1
4 0
5 1
6 2
7 3
8 1
9 0
10 0
11 0
12 1
13 0
14 0
15 1
16 2
17 1
18 2
19 1
20 1
21 2
22 0
23 1
24 2
25 1
26 0
27 1
28 2
29 3
30 1
31 0
32 0
33 0
34 1
35 0
36 0
37 2
38 2
39 2
40 2
41 2
42 2
43 2
44 0
45 1
46 2
47 1
48 2
49 1
50 2
51 3
52 1
53 3
54 1
55 3
56 1
57 1
58 3
59 1
60 2
61 1
62 2
63 1
64 1
65 2
66 1
67 0
