10
75
1 44
1 4
1 69
1 59
1 13
1 29
1 40
1 11
1 50
1 5
1 25
1 10
1 63
1 22
1 9
1 55
1 72
1 49
2 46
2 55
2 62
2 4
2 74
2 43
2 51
2 57
2 41
3 53
3 52
3 55
3 9
4 69
4 1
4 9
4 22
4 49
4 63
4 68
4 60
4 19
4 56
4 27
4 46
4 55
4 2
4 73
4 43
4 62
4 47
4 67
4 12
4 57
4 32
4 71
4 45
4 41
5 59
5 13
5 29
5 40
5 11
5 50
5 25
5 49
5 1
5 55
6 64
6 23
6 21
6 17
6 34
6 39
6 20
6 55
7 70
8 14
8 44
8 9
8 52
8 38
8 31
8 18
9 69
9 4
9 72
9 10
9 66
9 1
9 49
9 8
9 14
9 44
9 38
9 31
9 18
9 3
9 53
9 52
9 22
9 55
10 72
10 1
10 49
10 55
10 9
11 59
11 13
11 29
11 40
11 50
11 5
11 25
11 49
11 1
11 55
12 55
12 73
12 43
12 62
12 4
12 47
12 67
12 57
12 41
13 59
13 29
13 40
13 11
13 50
13 5
13 25
13 49
13 1
13 55
14 8
14 44
14 9
14 52
14 38
14 31
14 18
15 22
15 55
16 65
16 55
17 28
17 30
17 64
17 23
17 21
17 6
17 34
17 39
17 20
17 55
18 22
18 8
18 14
18 44
18 9
18 52
18 38
18 24
18 31
18 55
19 68
19 55
19 60
19 73
19 4
19 56
19 27
19 57
19 41
20 64
20 23
20 21
20 17
20 6
20 34
20 39
20 55
21 64
21 23
21 17
21 6
21 34
21 39
21 20
21 55
22 18
22 44
22 69
22 49
22 4
22 66
22 63
22 1
22 61
22 26
22 57
22 41
22 15
22 42
22 55
22 9
23 30
23 64
23 21
23 17
23 6
23 34
23 39
23 20
23 55
24 18
24 31
24 42
24 55
25 59
25 13
25 29
25 40
25 11
25 50
25 5
25 49
25 1
25 55
26 22
27 68
27 55
27 60
27 19
27 73
27 57
27 41
27 4
27 56
27 62
28 17
29 59
29 13
29 40
29 11
29 50
29 5
29 25
29 49
29 1
29 55
30 23
30 55
30 17
31 8
31 14
31 44
31 9
31 52
31 38
31 24
31 18
31 55
32 4
32 71
33 49
34 64
34 23
34 21
34 17
34 6
34 39
34 20
34 55
35 48
35 58
36 60
36 55
36 57
36 41
37 72
37 49
38 8
38 14
38 44
38 9
38 52
38 31
38 18
39 64
39 23
39 21
39 17
39 6
39 34
39 20
39 55
40 59
40 13
40 29
40 11
40 50
40 5
40 25
40 49
40 1
40 55
41 68
41 60
41 19
41 73
41 56
41 27
41 46
41 2
41 74
41 43
41 51
41 62
41 47
41 67
41 12
41 36
41 4
41 57
41 22
41 55
42 22
42 55
42 24
43 47
43 67
43 12
43 73
43 4
43 2
43 74
43 51
43 57
43 41
44 22
44 1
44 55
44 49
44 8
44 14
44 9
44 52
44 38
44 31
44 18
45 4
45 71
46 55
46 62
46 4
46 57
46 41
46 2
47 55
47 73
47 43
47 62
47 4
47 67
47 12
47 57
47 41
48 35
48 58
49 44
49 22
49 69
49 59
49 13
49 29
49 40
49 11
49 50
49 5
49 25
49 4
49 33
49 10
49 9
49 37
49 1
49 55
49 72
50 59
50 13
50 29
50 40
50 11
50 5
50 25
50 49
50 1
50 55
51 2
51 74
51 43
51 57
51 41
52 8
52 14
52 44
52 38
52 31
52 18
52 3
52 53
52 55
52 9
53 3
53 52
53 55
53 9
54 55
55 44
55 59
55 13
55 29
55 40
55 11
55 50
55 5
55 25
55 69
55 10
55 66
55 1
55 72
55 49
55 68
55 60
55 19
55 73
55 56
55 27
55 46
55 4
55 2
55 62
55 47
55 67
55 12
55 36
55 57
55 41
55 15
55 30
55 64
55 23
55 21
55 17
55 6
55 34
55 39
55 20
55 65
55 16
55 54
55 18
55 31
55 3
55 53
55 52
55 22
55 42
55 24
55 9
56 68
56 55
56 60
56 19
56 73
56 57
56 41
56 4
56 27
57 68
57 60
57 19
57 73
57 56
57 27
57 46
57 2
57 74
57 43
57 51
57 62
57 47
57 67
57 12
57 36
57 4
57 41
57 22
57 55
58 35
58 48
59 13
59 29
59 40
59 11
59 50
59 5
59 25
59 49
59 1
59 55
60 36
60 68
60 55
60 19
60 73
60 4
60 56
60 27
60 57
60 41
61 22
62 46
62 2
62 55
62 4
62 47
62 67
62 12
62 57
62 41
62 27
63 4
63 1
63 22
64 23
64 21
64 17
64 6
64 34
64 39
64 20
64 55
65 16
65 55
66 22
66 55
66 9
67 55
67 73
67 43
67 62
67 4
67 47
67 12
67 57
67 41
68 55
68 60
68 19
68 73
68 4
68 56
68 27
68 57
68 41
69 4
69 22
69 9
69 1
69 49
69 55
70 7
71 32
71 4
71 45
72 10
72 9
72 37
72 1
72 55
72 49
73 68
73 55
73 60
73 19
73 56
73 27
73 57
73 41
73 47
73 67
73 12
73 43
73 4
74 2
74 43
74 51
74 57
74 41